…
# Aggregation for precipitation works as expected

    Code
      aggregate_climate(base_ptpm, "month")
    Output
      # A tibble: 40 x 6
          station longitude latitude date       tag      value
            <dbl>     <dbl>    <dbl> <date>     <chr>    <dbl>
       1 26205080     -75.7     6.34 2020-06-01 PTPM_CON   NA 
       2 26205080     -75.7     6.34 2020-07-01 PTPM_CON  325.
       3 26205080     -75.7     6.34 2020-08-01 PTPM_CON  147.
       4 26205080     -75.7     6.34 2020-09-01 PTPM_CON  252.
       5 26205080     -75.7     6.34 2020-10-01 PTPM_CON   NA 
       6 27010770     -75.7     6.18 2020-06-01 PTPM_CON   NA 
       7 27010770     -75.7     6.18 2020-07-01 PTPM_CON  393 
       8 27010770     -75.7     6.18 2020-08-01 PTPM_CON  292 
       9 27010770     -75.7     6.18 2020-09-01 PTPM_CON  337 
      10 27010770     -75.7     6.18 2020-10-01 PTPM_CON   NA 
      # i 30 more rows
