…
# Dictionary works as expected

    Code
      geospatial_dictionary(spatial_level = "mpio", language = "EN")
    Output
      # A tibble: 88 x 4
         variable                 type         length description                     
         <chr>                    <chr>         <dbl> <chr>                           
       1 codigo_departamento      Text              2 Department code                 
       2 codigo_municipio_sin_con Text              3 Municipality code               
       3 municipio                Text            250 Municipality name               
       4 codigo_municipio         Text              5 Concatenated municipality code  
       5 version                  Long Integer     NA Year of the geographic informat~
       6 area                     Double           NA Municipality area in square met~
       7 latitud                  Double           NA Centroid latitude coordinate of~
       8 longitud                 Double           NA Centroid latitude coordinate of~
       9 encuestas                Double           NA Number of surveys CNPV 2018     
      10 enc_etnico               Double           NA Number of surveys that reported~
      # i 78 more rows
…
