Download climate data • ColOpenData
…
With our new ROI, we can make a first exploration to check if there
are any stations inside the ROI, using the function
stations_in_roi

stations <- stations_in_roi(roi)

print(stations)
#> Simple feature collection with 129 features and 21 fields
#> Geometry type: POINT
#> Dimension:     XY
#> Bounding box:  xmin: -75.67119 ymin: 4.983333 xmax: -75.33222 ymax: 5.163167
#> CRS:           NA
#> # A tibble: 129 × 22
#>     ...1   codigo nombre      categoria tecnologia estado departamento municipio
#>    <dbl>    <dbl> <chr>       <chr>     <chr>      <chr>  <chr>        <chr>    
#>  1   138 26155220 VILLAMARIA… Climátic… Automátic… Activa Caldas       Villamar…
#>  2   139 26155210 TORRE 4 - … Climátic… Automátic… Suspe… Caldas       Manizales
#>  3   140 26155230 EMAS - AUT… Climátic… Automátic… Activa Caldas       Manizales
#>  4   266 26155110 AEROPUERTO… Sinóptic… Convencio… Activa Caldas       Manizales
#>  5   749 26155170 TESORITO F… Climátic… Automátic… Activa Caldas       Manizales
#>  6  1119 26157090 PLAYA LA [… Limnimét… Convencio… Suspe… Caldas       Manizales
#>  7  2157 26157100 SAN GABRIE… Limnimét… Convencio… Activa Caldas       Manizales
#>  8  2312 26157060 RIO CLARO … Limnimét… Convencio… Suspe… Caldas       Villamar…
#>  9  2314 26155160 PALESTINA … Meteorol… Convencio… Suspe… Caldas       Chinchina
#> 10  2326 26157080 CHUPADEROS… Limnigrá… Convencio… Suspe… Caldas       Manizales
#> # ℹ 119 more rows
#> # ℹ 14 more variables: latitude <dbl>, longitude <dbl>, altitud <dbl>,
#> #   fecha_instalacion <dttm>, area_operativa <chr>, corriente <chr>,
#> #   area_hidrografica <chr>, zona_hidrografica <chr>,
#> #   subzona_hidrografica <chr>, entidad <chr>, fecha_suspension <chr>,
#> #   mpio_cdpmp <chr>, dpto_ccdgo <chr>, geometry <POINT>
…
