Documentation and Dictionaries • ColOpenData
…
List data

To check available datasets you can use the
list_datasets function. This function can also be filtered
with the module parameter to indicate a specific module

library(ColOpenData)

# List all datasets
datasets <- list_datasets()
print(datasets)
#> # A tibble: 104 × 7
#>    name                     group      source  year level   category description
#>    <chr>                    <chr>      <chr>  <dbl> <chr>   <chr>    <chr>      
#>  1 DANE_MGNCNPV_2018_DPTO   geospatial DANE    2018 Depart… maps     Geographic…
#>  2 DANE_MGNCNPV_2018_MPIO   geospatial DANE    2018 Munici… maps     Geographic…
#>  3 DANE_MGNCNPV_2018_MPIOCL geospatial DANE    2018 Munici… maps     Geographic…
#>  4 DANE_MGNCNPV_2018_SETU   geospatial DANE    2018 Urban … maps     Geographic…
#>  5 DANE_MGNCNPV_2018_SETR   geospatial DANE    2018 Rural … maps     Geographic…
#>  6 DANE_MGNCNPV_2018_SECU   geospatial DANE    2018 Urban … maps     Geographic…
#>  7 DANE_MGNCNPV_2018_SECR   geospatial DANE    2018 Rural … maps     Geographic…
#>  8 DANE_MGNCNPV_2018_MZN    geospatial DANE    2018 Block   maps     Geographic…
#>  9 DANE_MGNCNPV_2018_ZU     geospatial DANE    2023 Urban … maps     Geographic…
#> 10 IDEAM_CLIMATE_2023_MAY   climate    IDEAM   2023 Munici… weather  Available …
#> # ℹ 94 more rows
…
Demographic

Dictionaries are not provided for this module.

Geospatial

Datasets inside the geospatial module contain a summarized version of
the National Population and Dwelling Census (CNPV) and a dictionary is
needed to understand all aggregated variables. These dictionaries
contain the necessary metadata to use the available information. To
retrieve them, we can use the dictionaryfunction, using the
dataset name as a parameter:

dictionary("DANE_MGNCNPV_2018_MPIO")
#> # A tibble: 88 × 5
#>    variable   tipo         longitud descripcion               categoria_original
#>    <chr>      <chr>           <dbl> <chr>                     <chr>             
#>  1 DPTO_CCDGO Text                2 Código del departamento   NA                
#>  2 MPIO_CCDGO Text                3 Código que identifica al… NA                
#>  3 MPIO_CNMBR Text              250 Nombre del municipio      NA                
#>  4 MPIO_CDPMP Text                5 Código concatenado que i… NA                
#>  5 VERSION    Long Integer       NA Año de la información ge… NA                
#>  6 AREA       Double             NA Área del municipio en me… NA                
#>  7 LATITUD    Double             NA Coordenada de latitud ce… NA                
#>  8 LONGITUD   Double             NA Coordenada de longitud c… NA                
#>  9 STCTNENCUE Double             NA Cantidad de Encuestas CN… NA                
#> 10 STP3_1_SI  Double             NA Cantidad de encuestas qu… NA                
#> # ℹ 78 more rows
…
